<svg xmlns="http://www.w3.org/2000/svg" width="254" height="359" viewBox="0 0 254 359">
  <path fill-rule="evenodd" d="M733.5518,1112.2266 L733.5518,1008.6976 L670.9208,1008.6976 C666.9788,1002.9526 662.9468,997.1316 658.2508,991.1356 C681.7558,962.7406 702.8968,943.9866 703.1018,943.8006 L717.8038,931.3296 L496.1958,931.3296 L510.8978,943.8006 C511.1028,943.9866 532.2448,962.7406 555.7488,991.1356 C551.0538,997.1316 547.0208,1002.9526 543.0778,1008.6976 L480.4478,1008.6976 L480.4478,1112.2266 C480.4478,1113.4016 479.7238,1141.2186 494.6608,1177.0086 C504.7548,1201.1496 523.7698,1232.4006 559.0028,1260.2676 C559.9808,1261.0506 560.6558,1261.5386 560.8318,1261.6656 L562.3088,1262.8306 C563.0718,1263.4076 563.8738,1263.9956 564.6368,1264.5526 L565.1058,1264.9346 C576.4428,1273.3266 589.5508,1281.1896 604.2038,1288.5546 L607.0008,1289.9236 L609.7968,1288.5546 C624.4488,1281.1896 637.5568,1273.3266 648.8938,1264.9346 L649.3628,1264.5526 C650.1268,1263.9956 650.9278,1263.4076 651.6908,1262.8306 L653.1678,1261.6656 C653.3438,1261.5386 654.0198,1261.0506 654.9978,1260.2676 C690.2298,1232.4006 709.2448,1201.1496 719.3388,1177.0086 C734.2758,1141.2186 733.5518,1113.3906 733.5518,1112.2266 L733.5518,1112.2266 Z M659.2718,945.4206 L680.3598,945.4206 C672.1838,953.4416 661.1658,965.1106 649.1838,979.4506 C645.3298,974.8326 641.2738,970.4716 637.6258,966.4706 C647.7888,955.9266 655.7988,948.5316 659.2718,945.4206 L659.2718,945.4206 Z M653.4708,1008.6976 L644.3258,1008.6976 C645.8908,1006.5716 647.6578,1004.5556 649.1838,1002.5406 C650.7098,1004.5556 651.9848,1006.5716 653.4708,1008.6976 L653.4708,1008.6976 Z M607.0008,1022.7586 L617.3388,1022.7586 C613.5338,1028.8726 610.0518,1034.8776 607.0008,1040.6596 C603.9478,1034.8776 600.4658,1028.8726 596.6608,1022.7586 L607.0008,1022.7586 Z M602.3718,1008.6976 C603.8488,1006.6426 605.5128,1004.4386 607.0008,1002.4236 C608.4868,1004.4386 610.1508,1006.6426 611.6278,1008.6976 L607.0008,1008.6976 L602.3718,1008.6976 Z M618.0238,1129.5976 C618.0238,1151.1956 613.3968,1170.4656 607.0008,1186.6256 C600.6028,1170.4656 595.9758,1151.1956 595.9758,1129.5976 C595.9758,1110.8086 600.3878,1091.9966 607.0008,1074.2916 C613.6118,1091.9966 618.0238,1110.8086 618.0238,1129.5976 L618.0238,1129.5976 Z M585.9078,1008.6976 C582.2698,1003.4936 578.1188,996.5546 573.9218,991.1356 C577.9918,986.2456 582.1418,981.2346 585.9078,976.9596 C589.7618,981.2346 593.8238,986.2456 597.8838,991.1356 C593.6478,996.5546 589.5958,1003.4936 585.9078,1008.6976 L585.9078,1008.6976 Z M599.1948,1056.4536 C585.5198,1086.7946 581.7928,1111.5516 581.7928,1129.5976 C581.7928,1158.9626 589.2078,1183.7086 598.8618,1203.5166 C594.7538,1211.0786 590.2318,1217.7676 585.9078,1223.5486 C570.6198,1203.0466 554.1408,1171.1606 554.1408,1129.5976 C554.1408,1095.1586 568.3698,1061.1876 585.9078,1032.4786 C590.6128,1040.1276 595.1748,1048.1486 599.1948,1056.4536 L599.1948,1056.4536 Z M607.0008,1218.1466 C610.7368,1224.3876 614.8058,1230.1126 618.6108,1235.0406 C613.9938,1240.2356 609.8468,1244.2776 607.0008,1246.8396 C604.1538,1244.2776 600.0068,1240.2356 595.3888,1235.0406 C599.1948,1230.1126 603.2628,1224.3876 607.0008,1218.1466 L607.0008,1218.1466 Z M615.1378,1203.5166 C624.7918,1183.7086 632.2058,1158.9626 632.2058,1129.5976 C632.2058,1111.5516 628.4798,1086.7946 614.8058,1056.4536 C618.8258,1048.1486 623.3868,1040.1276 628.0918,1032.4786 C645.6298,1061.1876 659.8588,1095.1586 659.8588,1129.5976 C659.8588,1171.1606 643.3798,1203.0466 628.0918,1223.5486 C623.7688,1217.7676 619.2458,1211.0786 615.1378,1203.5166 L615.1378,1203.5166 Z M616.1168,991.1356 C620.1758,986.2456 624.2378,981.2346 628.0918,976.9596 C631.8578,981.2346 636.0088,986.2456 640.0768,991.1356 C635.8818,996.5546 631.7308,1003.4936 628.0918,1008.6976 C624.4038,1003.4936 620.3508,996.5546 616.1168,991.1356 L616.1168,991.1356 Z M617.4268,945.4206 L638.5148,945.4206 C635.4248,948.4726 631.9458,952.0036 628.0918,956.0736 C624.1988,952.0236 620.5178,948.4726 617.4268,945.4406 L617.4268,945.4206 Z M607.0008,955.1296 C610.1788,958.3186 614.1208,962.1996 618.2778,966.5416 C614.6298,970.5426 610.7758,975.0126 607.0008,979.6296 C603.2238,975.0126 599.3708,970.5426 595.7218,966.5416 C599.8788,962.1996 603.8208,958.3186 607.0008,955.1296 L607.0008,955.1296 Z M596.5728,945.4206 L596.5728,945.4406 C593.4818,948.4726 589.8008,952.0236 585.9078,956.0736 C582.0538,952.0036 578.5748,948.4726 575.4838,945.4206 L596.5728,945.4206 Z M533.6388,945.4206 L554.7288,945.4206 C558.2008,948.5316 566.2108,955.9266 576.3738,966.4706 C572.7258,970.4716 568.6698,974.8326 564.8158,979.4506 C552.8338,965.1106 541.8168,953.4416 533.6388,945.4206 L533.6388,945.4206 Z M569.6738,1008.6976 L560.5288,1008.6976 C562.0158,1006.5716 563.2908,1004.5556 564.8158,1002.5406 C566.3418,1004.5556 568.1088,1006.5716 569.6738,1008.6976 L569.6738,1008.6976 Z M494.5298,1112.7906 L494.5088,1022.7586 L533.5518,1022.7586 C504.8818,1069.0646 498.0648,1105.2036 498.0648,1129.5976 C498.0648,1134.4296 498.2598,1139.0866 498.6118,1143.6546 C494.4168,1125.4606 494.5298,1113.1336 494.5298,1112.7906 L494.5298,1112.7906 Z M565.1058,1246.7596 C551.8028,1234.8166 512.2478,1193.7356 512.2478,1129.5976 C512.2478,1091.1186 530.1668,1053.2946 550.4148,1022.7586 L575.4838,1022.7586 C546.7658,1068.7496 539.9478,1105.2036 539.9478,1129.5976 C539.9478,1177.3216 559.4328,1212.8766 576.6678,1235.0406 C572.0508,1240.2356 567.9428,1244.1976 565.1058,1246.7596 L565.1058,1246.7596 Z M607.0008,1274.0376 C595.7708,1268.2076 585.5198,1262.1566 576.4138,1255.6316 C579.1228,1253.1766 582.3088,1250.0276 585.9078,1246.0656 C594.8278,1255.7786 601.8648,1261.0506 602.6768,1261.6656 L607.0008,1264.9946 L611.3228,1261.6656 C612.1358,1261.0506 619.1708,1255.7786 628.0918,1246.0656 C631.6918,1250.0276 634.8768,1253.1766 637.5868,1255.6316 C628.4798,1262.1566 618.2288,1268.2076 607.0008,1274.0376 L607.0008,1274.0376 Z M648.8938,1246.7596 C646.0568,1244.1976 641.9488,1240.2356 637.3318,1235.0406 C654.5668,1212.8766 674.0508,1177.3216 674.0508,1129.5976 C674.0508,1105.2036 667.2338,1068.7496 638.5148,1022.7586 L663.5848,1022.7586 C683.8328,1053.2946 701.7528,1091.1186 701.7528,1129.5976 C701.7528,1193.7356 662.1958,1234.8166 648.8938,1246.7596 L648.8938,1246.7596 Z M715.3878,1143.6546 C715.7398,1139.0866 715.9348,1134.4296 715.9348,1129.5976 C715.9348,1105.2036 709.1178,1069.0646 680.4488,1022.7586 L719.4908,1022.7586 L719.4698,1112.7906 C719.4698,1113.1336 719.5838,1125.4606 715.3878,1143.6546 L715.3878,1143.6546 Z" transform="translate(-480 -931)"/>
</svg>
